[{
    "item": {
        "type": "things",
        "id": "310880",
        "name": "Battle for Germany: Deluxe Edition",
        "href": "\/boardgame\/310880\/battle-germany-deluxe-edition",
        "label": "Board Game",
        "labelpl": "Board Games",
        "hasAngularLink": false,
        "descriptors": [{
            "name": "yearpublished",
            "displayValue": "2021"
        }, {
            "name": "rank",
            "displayValue": "Rank 9310"
        }],
        "imageid": 5449188,
        "imageSets": {
            "square100": {
                "src": "https:\/\/cf.geekdo-images.com\/2V19e2WMMuDDa2slKr9Wag__square100\/img\/H2661Th_4AjK-PaMv9MmWuGoqSQ=\/0x0:522x522\/100x100\/filters:strip_icc()\/pic5449188.jpg",
                "src@2x": "https:\/\/cf.geekdo-images.com\/2V19e2WMMuDDa2slKr9Wag__square100@2x\/img\/X9hNUx9wIUtzajpGizvtsTAmDuY=\/0x0:522x522\/200x200\/filters:strip_icc()\/pic5449188.jpg"
            }
        }
    },
    "itemName": "Battle for Germany: Deluxe Edition",
    "image": {
        "src": "https:\/\/cf.geekdo-images.com\/2V19e2WMMuDDa2slKr9Wag__mediacard\/img\/ER7ZZRcPFJZvO6G1EgSnG3flK6g=\/0x0:522x294\/288x162\/filters:strip_icc()\/pic5449188.jpg",
        "src@2x": "https:\/\/cf.geekdo-images.com\/2V19e2WMMuDDa2slKr9Wag__mediacard@2x\/img\/s9ZdAjDAbmQ9Qse1_EY6qGcb5ZQ=\/0x0:522x294\/576x324\/filters:strip_icc()\/pic5449188.jpg"
    },
    "publisherName": "Decision Games",
    "description": "Wargamers (West vs Soviet) compete to annihilate Germany, end of WW2"
}, {
    "item": {
        "type": "things",
        "id": "296567",
        "name": "Rising Sun Over China: Japan vs China 1931 \u2013 1937",
        "href": "\/boardgame\/296567\/rising-sun-over-china-japan-vs-china-1931-1937",
        "label": "Board Game",
        "labelpl": "Board Games",
        "hasAngularLink": false,
        "descriptors": [{
            "name": "yearpublished",
            "displayValue": "2021"
        }],
        "imageid": 6284669,
        "imageSets": {
            "square100": {
                "src": "https:\/\/cf.geekdo-images.com\/qpYVzdpdE3875wJ4WLd9nA__square100\/img\/e4yiO2uXltI_yYCI40MJ8cBhw-Y=\/0x0:1680x1680\/100x100\/filters:strip_icc()\/pic6284669.jpg",
                "src@2x": "https:\/\/cf.geekdo-images.com\/qpYVzdpdE3875wJ4WLd9nA__square100@2x\/img\/Ab7Trjjll-fWel5AFZWYNUTvvEI=\/0x0:1680x1680\/200x200\/filters:strip_icc()\/pic6284669.jpg"
            }
        }
    },
    "itemName": "World at War 79: Rising Sun Over China: Japan vs China 1931 - 1937",
    "image": {
        "src": "https:\/\/cf.geekdo-images.com\/qpYVzdpdE3875wJ4WLd9nA__mediacard\/img\/xlBTt6GvkwIuI9h2F8k9pGMQuns=\/0x146:1680x1091\/288x162\/filters:strip_icc()\/pic6284669.jpg",
        "src@2x": "https:\/\/cf.geekdo-images.com\/qpYVzdpdE3875wJ4WLd9nA__mediacard@2x\/img\/zmxnP5B182alS_LkeBKH2xM19Ao=\/0x146:1680x1091\/576x324\/filters:strip_icc()\/pic6284669.jpg"
    },
    "publisherName": "Decision Games",
    "description": "The campaigns in northern China, 1931 to 1937."
}]

